Baris,Genre
"['chapter', 'probability', 'kill', 'wife', 'without', 'found']",1
"['masahiro', 'pov']",1
"['morning', 'always', 'began', 'activating', 'computer', 'glasses', 'checking', 'certain', 'future', 'prediction']",1
"['well', 'guess', 'right']",1
"['lately', 'seen', 'number', 'broadcast', 'cross']",1
"['probability', 'kill', 'wife', 'without', 'found']",1
"['preset', 'future', 'prediction', 'calculate']",1
"['already', 'around', 'fifteen', 'years', 'since', 'home', 'pcs', 'got', 'able', 'perform', 'simple', 'predictions', 'entered', 'query', 'used', 'various', 'applications', 'employing', 'without', 'exception']",1
"['wife', 'call', 'political', 'marriage', 'company', 'grandfather', 'managed', 'financial', 'support', 'wife', 'father', 'father', 'law', 'proposed', 'drew', 'political', 'marriage', 'together', 'normal', 'looks', 'anything', 'particularly', 'special', 'could', 'reason', 'wanted', 'simple', 'girl', 'never', 'met', 'taken', 'liking', 'photograph']",1
"['think', 'love', 'alright']",1
"['ten', 'years', 'gone', 'since', 'said', 'marriage', 'like', 'girlfriend', 'anything', 'looks', 'worse', 'grandfather', 'company', 'avoided', 'bankruptcy', 'next', 'company', 'president', 'every', 'little', 'thing', 'going', 'swimmingly', 'respect', 'world', 'respect', 'common', 'sense', 'surely', 'think']",1
"['maybe', 'felt', 'strongly', 'bought', 'money', 'extent', 'mildly', 'hated']",1
"['want', 'could', 'simply', 'shook', 'head', 'situation', 'one', 'allow', 'mean', 'come', 'point', 'grandfather', 'company', 'last', 'days', 'case', 'go', 'bankrupt', 'part', 'convinced', 'stubborn', 'grandfather', 'mine', 'overly', 'strong', 'sense', 'responsibility', 'may', 'try', 'choose', 'converting', 'life', 'money', 'said', 'life', 'enough', 'save', 'mine', 'massive', 'debt', 'could', 'permit', 'marriage']",1
"['may', 'kill', 'take', 'money', 'inherit', 'even', 'alright']",1
"['done', 'marriage', 'words', 'nonchalantly', 'tossed', 'moment', 'made', 'face', 'surprise', 'smiling', 'assented']",1
"['fine', 'matter', 'get', 'fall', 'right']",1
"['challenging', 'words', 'somehow', 'made', 'gallant', 'warrior', 'making', 'open', 'eyes', 'wide', 'second', 'within', 'day', 'inputted', 'probability', 'kill', 'wife', 'without', 'found', 'glasses', 'entering', 'simple', 'question', 'wearable', 'terminal', 'took', 'various', 'affairs', 'computed', 'precise', 'value', 'output', 'probability', 'first', 'number', 'come', 'surprisingly', 'high', 'number', 'froze', 'shock', 'close', 'thought', 'recalled', 'wife', 'going', 'trip', 'starting', 'day', 'trip', 'alone', 'killing', 'making', 'seem', 'still', 'overseas', 'sounded', 'possible']",1
"['shall', 'make', 'seem', 'took', 'trip', 'kill', 'seems', 'succeed', 'almost', 'time']",1
"['see', 'good', 'luck', 'want', 'bring', 'anything', 'back']",1
"['flippant', 'words', 'interesting', 'found', 'asking', 'think', 'kill', 'reply', 'kill', 'put', 'enough', 'effort', 'cold', 'eyes']",1
"['saw', 'calculated', 'another', 'future', 'prediction']",1
"['probability', 'love', 'wife', 'half', 'year', 'today']",1
"['bet', 'nodded', 'even', 'thought', 'interesting', 'woman', 'fact', 'harbor', 'good', 'sentiment', 'towards', 'think', 'would', 'change', 'within', 'mere', 'six', 'months']",1
"['yuri', 'pov']",1
"['get', 'child', 'already']",1
"['father', 'favorite', 'phrase']",1
"['born', 'house', 'women', 'seen', 'tools', 'birth', 'children', 'already', 'twenties', 'standing', 'crossroads', 'life']",1
"['fingertips', 'close', 'fifty', 'photos', 'different', 'men', 'marriage', 'partner', 'candidates', 'father', 'prepared']",1
"['took', 'initiative', 'volunteered', 'wanted', 'company', 'recommended', 'strengthen', 'ties', 'companies', 'various', 'reasons', 'marry', 'one', 'build', 'child']",1
"['reason', 'existence', 'house']",1
"['think', 'love', 'another']",1
"['wonder', 'everyone', 'believes', 'something', 'shapeless', 'love', 'marvel']",1
"['something', 'standard', 'person', 'could', 'must', 'person', 'never', 'properly', 'loved']",1
"['put', 'break', 'countless', 'answerless', 'questions', 'held', 'since', 'birth', 'stared', 'photos', 'around']",1
"['chose', 'truly', 'coincidence']",1
"['largest', 'reason', 'chose', 'photo', 'bottom', 'stack', 'order', 'close', 'fifty', 'photos', 'decided', 'much', 'profit', 'person', 'could', 'bring', 'company', 'since', 'bottom', 'stack', 'practically', 'pointless', 'father', 'company', 'revenge', 'father', 'took', 'photo', 'hand']",1
"['photo', 'plain', 'man', 'could', 'find', 'anywhere', 'man', 'whose', 'real', 'trait', 'came', 'diligent', 'air', 'given', 'glasses', 'face', 'photo', 'hand', 'potential', 'marriage', 'partner', 'smiling', 'even', 'looked', 'glaring', 'angrily']",1
"['unflattering', 'bearing', 'held', 'contrarily', 'favorable', 'impression']",1
"['looking', 'profile', 'back', 'photo', 'even', 'certain', 'would', 'settle', 'person']",1
"['history', 'indicated', 'graduating', 'second', 'rate', 'college', 'entered', 'mid', 'tier', 'company', 'could', 'find', 'anywhere', 'years', 'service', 'would', 'total', 'five', 'year']",1
"['man', 'reason', 'candidacy', 'save', 'grandfather', 'company', 'wrote', 'mind', 'went', 'strange']",1
"['time', 'noticed', 'leaked', 'words']",1
"['going', 'way', 'marry', 'woman', 'love', 'save', 'someone', 'else', 'must', 'unbelievably', 'softhearted', 'kind', 'passed', 'salvation']",1
"['think', 'love', 'alright']",1
"['words', 'let', 'first', 'time', 'met', 'forget', 'father', 'face', 'moment', 'said', 'scowling', 'shoulders', 'perked', 'scattered', 'shouts', 'give', 'man']",1
"['amusing', 'help', 'alone', 'made', 'glad', 'chose']",1
"['marriage', 'still', 'young', 'said']",1
"['may', 'kill', 'take', 'money', 'inherit', 'even', 'alright']",1
"['thought', 'man', 'say', 'interesting', 'things', 'really', 'planning', 'thing', 'keep', 'quiet', 'carry', 'reason', 'sought', 'consent']",1
"['point', 'said', 'sure', 'kill', 'reason', 'eyes', 'serious', 'laughed', 'without', 'restrained']",1
"['thought', 'game']",1
"['fine', 'matter', 'get', 'fall', 'right']",1
"['thought', 'would', 'interesting', 'fell', 'real']",1
"['though', 'doubted', 'would', 'love', 'either', 'could', 'act', 'love', 'much', 'wanted', 'hand', 'blatantly', 'seemed', 'hated', 'likely', 'bad', 'lying']",1
"['act', 'happy', 'couple', 'knew', 'would', 'necessary', 'make', 'fall']",1
"['game', 'make', 'fall']",1
"['thought', 'like', 'married', 'life', 'sole', 'purpose', 'child', 'began', 'feel', 'fun', 'strange']",1
"['chapter', 'glasses', 'case']",1
"['yuri', 'pov']",1
"['shall', 'make', 'seem', 'took', 'trip', 'kill', 'seems', 'succeed', 'almost', 'time']",1
"['overseas', 'trip', 'planning', 'marriage', 'day', 'said']",1
"['idea', 'forty', 'percent', 'supposed', 'mean', 'seems', 'thinking', 'killing', 'confessed', 'strange', 'man']",1
"['answered', 'whatever', 'felt', 'appropriate', 'day', 'came', 'close', 'early', 'next', 'day', 'took', 'large', 'bag', 'descended', 'second', 'floor', 'bedroom', 'living', 'room', 'surprised', 'found']",1
"['good', 'morning']",1
"['become', 'husband', 'weeks', 'ago', 'appearance', 'order', 'surprised', 'loss', 'words', 'gave', 'dangerous', 'scowl', 'asked', 'late']",1
"['urgings', 'headed', 'parlor', 'turned', 'back']",1
"['see', 'later']",1
"['reason', 'line', 'became', 'question', 'determine', 'whether', 'woken', 'early', 'see']",1
"['simply', 'nodded', 'reciprocate', 'words', 'parting', 'words', 'heard', 'closing', 'door', 'slackened', 'face']",1
"['take', 'care']",1
"['important', 'thing']",1
"['gained', 'awareness', 'mother', 'even', 'married', 'house', 'like', 'mine', 'died', 'promptly', 'family', 'father', 'alone', 'man', 'work', 'father', 'rarely', 'returned', 'home', 'times', 'ate', 'breakfast', 'dinner', 'together', 'enough', 'count']",1
"['even', 'time', 'rose', 'high', 'school', 'alright', 'living', 'alongside', 'house', 'helper', 'got', 'along', 'well', 'bad', 'around', 'age', 'grandmother', 'doted', 'quite', 'bit']",1
"['relation', 'built', 'money', 'invested', 'employment', 'contract', 'age', 'feel', 'strongly', 'depended', 'father', 'less', 'family', 'given']",1
"['spring', 'first', 'high', 'school', 'year', 'passed', 'away']",1
"['father', 'said', 'would', 'hire', 'another', 'helper', 'around', 'house', 'declined', 'family', 'position', 'could', 'never', 'replaced']",1
"['even', 'father', 'went', 'hired', 'one', 'brushed', 'aside', 'father', 'forcefully', 'changed', 'cognizance', 'family', 'mere', 'helper', 'lost', 'family', 'within']",1
"['life', 'alone', 'began']",1
"['house', 'large', 'enough', 'painful', 'took', 'food', 'alone', 'prepared', 'alone', 'went', 'school']",1
"['one', 'see', 'back', 'father', 'occasionally', 'returned', 'hold', 'proper', 'conversation']",1
"['die', 'like', 'would', 'anyone', 'even', 'notice', 'longer']",1
"['question', 'even', 'floated', 'floated']",1
"['without', 'giving', 'motivation', 'kill', 'mind']",1
"['like', 'gradually', 'grew', 'used', 'alone']",1
"['take', 'care']",1
"['first', 'words', 'wellbeing', 'heard']",1
"['one', 'said', 'loveless', 'husband', 'weeks', 'ago', 'one', 'threatened', 'kill', 'day']",1
"['felt', 'amusing', 'depths', 'heard', 'filled', 'pleasant', 'feeling']",1
"['unable', 'contain', 'laughed', 'taxi', 'called', 'remembering', 'sour', 'face', 'saw', 'head', 'filled', 'thoughts', 'nothing', 'make', 'fall']",1
"['trip', 'days', 'completely', 'honest', 'fun', 'choosing', 'souvenir', 'give']",1
"['regards', 'return', 'first', 'words', 'follows']",1
"['probability', 'love', 'half', 'year', 'later', 'seems']",1
"['masahiro', 'pov']",1
"['told', 'love', 'probability', 'returned', 'excitedly', 'looking', 'forward', 'reaction', 'returned', 'see', 'honest', 'let']",1
"['sure', 'hate']",1
"['picked', 'marriage', 'partner', 'even', 'hate', 'sure', 'favorable', 'sentiment', 'towards', 'said', 'two', 'simple', 'words', 'care', 'say', 'wanted', 'cry', 'least', 'wanted', 'see', 'vexed', 'expression']",1
"['could', 'ask', 'plan', 'killing', 'next']",1
"['left', 'said', 'shall', 'make', 'seem', 'took', 'trip', 'kill', 'waiting', 'whole', 'time', 'came', 'sure', 'would', 'splendid', 'honeymoon']",1
"['want', 'killed']",1
"['possible', 'want', 'loved']",1
"['thought', 'incomprehensible', 'woman', 'front', 'flipped', 'switch', 'glasses', 'computed', 'probability']",1
"['probability', 'kill', 'wife', 'without', 'found']",1
"['ten', 'times', 'found', 'quite', 'number']",1
"['since', 'ones', 'house', 'dead', 'night', 'could', 'expect', 'stopped', 'thoughts']",1
"['right', 'around', 'guess', 'kill', 'make', 'never', 'returned', 'trip', 'leave', 'body', 'ditch', 'nearby', 'bet', 'think', 'victim', 'hit', 'run']",1
"['case', 'recommend', 'park', 'nearby', 'place', 'famous', 'suspicious', 'activity']",1
"['understand', 'goes', 'head']",1
"['desperate', 'get', 'love']",1
"['turned', 'dangerous', 'eyes', 'gave', 'light', 'laugh', 'handed', 'box', 'calling', 'souvenir']",1
"['throw', 'away']",1
"['gave', 'mind', 'whatever']",1
"['fully', 'answer', 'request', 'threw', 'trash', 'good', 'momentum', 'triumphantly', 'turning', 'look', 'face', 'felt', 'bit', 'regret', 'eyebrows', 'drawn', 'together', 'sorrowfully', 'looked', 'box', 'want', 'look', 'eyes', 'hurriedly', 'applied', 'room']",1
"['yuri', 'pov']",1
"['probability', 'love', 'half', 'year', 'later', 'seems']",1
"['meaning', 'take', 'half', 'year', 'impression', 'already', 'knew', 'half', 'year', 'enough', 'nab', 'man', 'particularly', 'surprised', 'merely', 'drank', 'stating', 'fact']",1
"['seem', 'discontent', 'attitude', 'little', 'irritated', 'sure', 'hate', 'declared']",1
"['seems', 'wanted', 'knock', 'speechless']",1
"['sure', 'wanted', 'see', 'bitter', 'face', 'hatred', 'thought', 'sour', 'stomach', 'filled', 'thought', 'bought', 'would', 'subside']",1
"['start', 'slightest', 'intent', 'move', 'wished', 'type', 'man', 'fall', 'woman', 'moved', 'however', 'wanted']",1
"['could', 'ask', 'plan', 'killing', 'next']",1
"['said', 'challengingly', 'let', 'wimpy', 'voice', 'likely', 'never', 'thought', 'would', 'come']",1
"['want', 'killed']",1
"['possible', 'want', 'loved']",1
"['without', 'doubt', 'true', 'feelings']",1
"['eyes', 'flipped', 'switch', 'glasses', 'shaped', 'pc', 'carried', 'future', 'prediction', 'characters', 'could', 'see', 'spelled', 'probability', 'kill', 'wife', 'without', 'found']",1
"['see', 'looking', 'accepted']",1
"['forty', 'percent', 'came', 'trip', 'meant']",1
"['end', 'fierce', 'clash', 'handed', 'souvenir', 'put', 'several', 'hours', 'choosing', 'could', 'tell', 'looking', 'treasured', 'glasses', 'end', 'chose', 'play', 'safe', 'buy', 'glasses', 'case']",1
"['black', 'leather', 'coated', 'case', 'bottom', 'carved', 'initials', 'one', 'kind', 'world', 'called', 'perhaps', 'case', 'appearance', 'alone', 'glasses', 'case', 'could', 'find', 'anywhere']",1
"['tossed', 'trash', 'good', 'momentum']",1
"['shock', 'greater', 'shock', 'anticipated', 'act', 'someone', 'think', 'anything', 'pay', 'mind', 'bit', 'lip', 'bit', 'kept', 'silent', 'hurriedly', 'returned', 'room', 'hour', 'followed', 'glued', 'spot']",1
"['newly', 'wedded', 'life', 'started', 'time', 'noticed', 'half', 'year', 'gone']",1
"['continued', 'game', 'make', 'fall', 'seems', 'still', 'checking', 'probability', 'every', 'day', 'without', 'fail']",1
"['chapter', 'first', 'date']",1
"['yuri', 'pov']",1
"['today', 'quite', 'treat']",1
"['reported', 'every', 'morning', 'start', 'doubted', 'motives', 'blunt', 'already', 'used']",1
"['short', 'conversation', 'starter', 'would', 'always', 'make', 'use', 'one']",1
"['two', 'percent', 'yesterday', 'good', 'good', 'thing', 'happened', 'today', 'look', 'perfectly', 'dashi', 'rolled', 'eggs', 'like']",1
"['wrong', 'times', 'find', 'afraid']",1
"['giving', 'sudden', 'smile', 'took', 'seat', 'preparing', 'breakfast', 'ate', 'together', 'usual', 'flow']",1
"['every', 'morning', 'every', 'meal', 'would', 'diligently', 'make', 'liked', 'thinking', 'grab', 'stomach', 'woman', 'made', 'liked', 'one', 'former', 'overwhelmingly', 'likable', 'thought']",1
"['likes', 'dislikes', 'easy', 'see', 'unable', 'lie', 'whenever', 'liked', 'something', 'corners', 'mouth', 'would', 'rise', 'wrinkle', 'would', 'visit', 'brow']",1
"['good', 'nicely', 'done', 'right']",1
"['seems', 'today', 'breakfast', 'tastes']",1
"['like', 'year', 'went']",1
"['period', 'father', 'began', 'pestering', 'whether', 'child', 'yet', 'even', 'asked', 'slept', 'separate', 'rooms', 'show', 'signs', 'anything', 'like', 'impossible', 'impossible', 'child', 'would', 'second', 'coming']",1
"['told', 'father', 'yelled', 'heatedly', 'went', 'woman', 'happiness', 'lay', 'leaving', 'child', 'world', 'present', 'hard', 'imagine', 'wanted', 'successor', 'given', 'age']",1
"['words', 'hung', 'faithful', 'barged', 'house', 'next', 'holiday', 'barged', 'man', 'home', 'panicked', 'could', 'believe']",1
"['father', 'demanded', 'meaning', 'behind', 'ended', 'leaking', 'fact', 'separate', 'rooms', 'idea', 'phone']",1
"['intent', 'embrace', 'love', 'doubt', 'feels', 'wants', 'embraced', 'either', 'woman', 'purpose', 'tool', 'children', 'reason', 'married', 'one', 'made', 'wrong', 'choice', 'let', 'divorce', 'please', 'marry', 'someone', 'properly', 'loves']",1
"['words', 'shut', 'father']",1
"['father', 'returned', 'running', 'spot', 'put', 'coffee']",1
"['understand', 'thanks']",1
"['wanted', 'divorce']",1
"['saying', 'sulkily', 'sipped', 'coffee']",1
"['really', 'kind', 'person', 'seems', 'individual', 'realized', 'truly', 'words', 'sticking']",1
"['opened', 'mouth', 'bring', 'forth', 'gratitude', 'words', 'coming', 'extremely', 'twisted', 'way']",1
"['oh', 'really', 'fine', 'divorce', 'kill', 'large', 'sum', 'money', 'distancing']",1
"['right', 'want']",1
"['could', 'hear', 'next', 'plan']",1
"['tell', 'move', 'killed']",1
"['wife', 'resolve', 'accept', 'anything', 'like', 'underestimate']",1
"['even', 'knife']",1
"['touched', 'coffee', 'cup', 'chest', 'grinned', 'lips', 'stole', 'cup', 'form', 'hands', 'downed', 'contents']",1
"['even', 'filled', 'poison']",1
"['said', 'smile', 'burst', 'laughter', 'within', 'lifestyle', 'first', 'time', 'saw', 'real', 'smile', 'thought', 'lips', 'alone', 'still', 'leisurely', 'smile', 'held', 'finger']",1
"['could', 'order', 'another', 'coffee', 'without', 'poison']",1
"['never', 'even', 'thought', 'feed', 'poison', 'dear']",1
"['said', 'assented', 'reverted', 'back', 'usual', 'expressionless', 'state', 'felt', 'somewhat', 'lonely', 'decided', 'would', 'definitely', 'make', 'laugh', 'sometime']",1
"['understood', 'hindsight', 'point', 'fallen']",1
"['supposed', 'dropping', 'honestly', 'pitiful', 'jazz', 'life', 'like', 'gemstone']",1
"['still', 'understand', 'love', 'still', 'treasure']",1
"['another', 'year', 'half', 'passed', 'three', 'years', 'marriage']",1
"['still', 'playing', 'game', 'make', 'fall', 'mastered', 'tastes', 'makeup', 'dress']",1
"['come', 'far', 'already', 'nothing', 'woman', 'love', 'small', 'bit', 'pride', 'allow', 'accept']",1
"['going', 'bit', 'bit', 'still', 'change', 'things', 'got', 'around', 'help', 'around', 'chores', 'start', 'everything', 'left', 'kept', 'quiet', 'point', 'recently', 'protested', 'stayed', 'home', 'argument', 'sake', 'still', 'job', 'unfair', 'accepted', 'division', 'housework', 'easily', 'laundry', 'trash', 'every', 'day', 'charge']",1
"['hard', 'said', 'something', 'earlier', 'want', 'dying', 'form', 'overwork', 'want', 'kill', 'without', 'found']",1
"['recent', 'occurrence', 'began', 'smile', 'whenever', 'said', 'something', 'like']",1
"['becoming', 'family', 'slowly', 'surely']",1
"['unbearably', 'happy', 'fact', 'heart', 'danced', 'prospect', 'warm', 'household', 'first', 'time', 'life']",1
"['birthday', 'came']",1
"['moving', 'plan', 'devised', 'long', 'beforehand', 'preparations', 'morning', 'dinner', 'best', 'makeup', 'dressing']",1
"['thought', 'go', 'date', 'embarrassing', 'first', 'date', 'life', 'sheltered', 'daughter', 'definition', 'term', 'truth', 'acquaintances', 'numbered', 'zero']",1
"['long', 'waited', 'day']",1
"['masahiro', 'pow']",1
"['said', 'wanted', 'go', 'date']",1
"['well', 'want', 'go']",1
"['let', 'go', 'aquarium', 'today']",1
"['love', 'even', 'like']",1
"['thought', 'think', 'could', 'get', 'along', 'normal', 'couple', 'long', 'irritation', 'caused', 'stare', 'silence', 'perceived', 'easy', 'smile']",1
"['sure', 'fine', 'plan', 'letting', 'chance', 'slip']",1
"['answer', 'invitation', 'may', 'able', 'kill']",1
"['want', 'kill', 'want', 'kill', 'without', 'found', 'get', 'caught', 'meaning']",1
"['exactly', 'remember', 'today', 'numbers']",1
"['right', 'falling', 'lately', 'sure', 'fine', 'go', 'places', 'number', 'may', 'skyrocket', 'crowd', 'stab', 'back', 'knife', 'nothing', 'tie', 'caught', 'sake', 'start', 'going', 'crowds']",1
"['talking', 'killing', 'sure', 'good', 'mood']",1
"['want', 'good', 'mood', 'today', 'alright', 'leave', 'back']",1
"['oh', 'hold', 'tight', 'wish']",1
"['lured', 'amused', 'laughed', 'formed', 'smile', 'end', 'opposition', 'overcome', 'went', 'first', 'date', 'almost', 'third', 'year', 'marriage']",1
"['gave', 'two', 'choices', 'fun', 'fun', 'sure', 'fun', 'first', 'trip', 'aquarium', 'long', 'time', 'get', 'feeling', 'high', 'spirits', 'unbecoming', 'age', 'day', 'heart', 'danced', 'much', 'check', 'numbers', 'smiling', 'beside', 'wanted', 'thank', 'time', 'alone']",1
"['night', 'came', 'ate', 'dinner', 'home', 'per', 'usual', 'bit', 'extravagant', 'usual', 'looking', 'table', 'lined', 'nothing', 'favorites', 'finally', 'looked', 'calendar']",1
"['forgot', 'celebrating', 'every', 'year', 'argument', 'sake']",1
"['thinking', 'back', 'got', 'feeling', 'always', 'day', 'per', 'year', 'favorite', 'food', 'extravagantly', 'lined', 'thinking', 'whim', 'mindful', 'time', 'come', 'far', 'realized', 'must', 'birthdays']",1
"['say', 'thank']",1
"['mind', 'celebrate', 'birthday']",1
"['wanted', 'mind']",1
"['thank', 'born']",1
"['thinking', 'back', 'understand', 'embarrassed', 'time', 'flustered', 'woman', 'alright', 'could', 'think']",1
"['expected', 'attitude', 'change', 'neither']",1
"['month', 'got', 'around', 'going', 'together']",1
"['kill', 'date']",1
"['really', 'intend', 'kill', 'asked', 'would', 'answer', 'never', 'start']",1
"['true', 'think', 'well', 'died', 'like', 'never', 'considered', 'something', 'high', 'risk', 'killing', 'option', 'coward', 'like', 'could', 'choose', 'easily']",1
"['become', 'married', 'couple', 'came', 'right', 'topic', 'conversation']",1
"['sure', 'knew', 'knew', 'used', 'negotiations', 'acknowledged', 'hopped', 'board', 'bargains']",1
"['thought', 'slight', 'idea', 'hurriedly', 'closed', 'box', 'mean', 'long']",1
"['chapter', 'yuri', 'birthday']",1
"['yuri', 'pov']",1
"['thank', 'born']",1
"['flushed', 'face', 'lovely']",1
"['seems', 'loved', 'enjoyed', 'well', 'happy']",1
"['let', 'loose', 'bought', 'enough', 'paraphernalia', 'carry', 'hands', 'quietly', 'took', 'carried', 'home', 'actually', 'part', 'enjoyed', 'life', 'secret']",1
"['got', 'around', 'going', 'together', 'around', 'per', 'month', 'starting', 'nearby', 'park', 'got', 'far', 'small', 'trips', 'prefecture']",1
"['made', 'lunch', 'make', 'sour', 'face', 'quietly', 'ate', 'let', 'slip', 'rising', 'corners', 'lips', 'whenever', 'packed', 'fried', 'chicken', 'eggs']",1
"['next', 'time', 'tried', 'loading', 'lunch', 'foods', 'look', 'bit', 'surprised', 'face', 'say']",1
"['read', 'hearts']",1
"['strange', 'interesting', 'still', 'smile', 'much', 'even', 'thought', 'become', 'quite', 'enjoyable', 'married', 'life']",1
"['year', 'went', 'desires', 'began', 'come']",1
"['around', 'four', 'years', 'since', 'married']",1
"['point', 'knew', 'time', 'admitted', 'liked', 'accepted', 'desires', 'began', 'born', 'wanted', 'come', 'love', 'wanted', 'us', 'become', 'normal', 'couple', 'family']",1
"['honestly', 'devoted', 'much', 'thought', 'least', 'taken', 'bit', 'usual', 'poker', 'face', 'times', 'tell', 'thinking']",1
"['wanted', 'know', 'feelings', 'decided', 'test', 'certain', 'means']",1
"['means', 'used', 'every', 'morning']",1
"['started', 'old', 'type', 'notebook', 'pc', 'stowed', 'away', 'back', 'closet', 'started', 'future', 'prediction']",1
"['empty', 'input', 'came', 'hesitated', 'moment', 'enter', 'nervous', 'face', 'typed']",1
"['probability', 'husband', 'loves', 'wife']",1
"['husband', 'wife', 'slots', 'came', 'entered', 'names', 'birthdates', 'serial', 'numbers', 'identified', 'us', 'individuals', 'various', 'things', 'pushed', 'enter', 'key']",1
"['answer', 'fell', 'thump', 'made', 'finally', 'realize']",1
"['every', 'bit', 'rushing', 'windmills']",1
"['wanting', 'love', 'cooking', 'makeup', 'put', 'effort', 'studying', 'flowers', 'changed', 'every', 'day', 'smile', 'words', 'exchanged', 'understand', 'little', 'bit', 'thought', 'back', 'always', 'alone', 'made', 'merry', 'done', 'sure', 'bother']",1
"['start', 'human', 'hated', 'five', 'years', 'sure', 'never', 'changed']",1
"['come', 'think', 'never', 'heard', 'see', 'soon', 'home']",1
"['let', 'tears', 'spill', 'onto', 'keyboard', 'thought', 'along', 'vein']",1
"['even', 'continued', 'game', 'make', 'fall', 'point', 'simply', 'wanted', 'like', 'thought', 'like', 'felt', 'ashamed', 'helping']",1
"['frankly', 'irrelevant', 'whether', 'found', 'bother', 'something', 'wanted']",1
"['believing', 'would', 'turn', 'back', 'one', 'day', 'spoke', 'smile']",1
"['masahiro', 'pov']",1
"['two', 'years', 'passed', 'marriage', 'fifth', 'year']",1
"['today', 'worst', 'way', 'low']",1
"['relieved', 'looks', 'like', 'peace', 'go']",1
"['never', 'change', 'begin', 'epitome', 'peace']",1
"['always', 'case', 'cooked', 'today', 'fish', 'long', 'burnt', 'black']",1
"['mine', 'looks', 'normal', 'though']",1
"['quickly', 'another', 'one', 'look', 'burnt', 'black']",1
"['saying', 'showed', 'fish', 'plate', 'gave', 'bitter', 'smile', 'took', 'plate', 'exchanged', 'mine', 'started', 'breakfast']",1
"['sure', 'practically', 'charcoal']",1
"['sure', 'may', 'laced', 'plate', 'poison', 'looking']",1
"['poison', 'set', 'like', 'try']",1
"['go', 'ahead']",1
"['thank', 'meal']",1
"['eating', 'usual', 'breakfast', 'looked', 'clock', 'next', 'time', 'displayed', 'date']",1
"['already', 'five', 'years']",1
"['honest', 'thought', 'time', 'call', 'quits']",1
"['ate', 'breakfast', 'eyes', 'future', 'prediction', 'seeing', 'numbers', 'projected', 'glasses', 'lens', 'let', 'sigh']",1
"['thought', 'low', 'told', 'number', 'plus', 'one', 'woke', 'way', 'added', 'one', 'worthless', 'display', 'obstinacy']",1
"['past', 'talked', 'friend', 'knowledgeable', 'future', 'prediction', 'system', 'predictions', 'bout', 'us', 'spouses', 'curious', 'numbers', 'decreasing', 'years']",1
"['sure', 'idiot', 'said', 'sighed', 'gave', 'thorough', 'explanation']",1
"['according', 'probability', 'kill', 'wife', 'without', 'found', 'query', 'would', 'start', 'calculations', 'probability', 'individual', 'input', 'likely', 'kill', 'wife', 'meaning', 'rate', 'declining', 'long', 'years', 'likely', 'indicated', 'change', 'feelings', 'said']",1
"['absurd', 'thought', 'crossed', 'mind', 'followed', 'even', 'case', 'expect', 'long', 'became', 'hard', 'saying', 'nothing', 'cruel', 'things', 'always', 'ignoring', 'anniversaries', 'put', 'whatever', 'gave']",1
"['five', 'years', 'five', 'whole', 'years']",1
"['sort', 'face', 'supposed', 'put', 'tell', 'treasure']",1
"['end', 'even', 'chose', 'continue', 'nothing', 'putting', 'feelings']",1
"['let', 'end', 'already', 'time', 'call', 'quits', 'idea', 'love', 'sure', 'treasure', 'think', 'tell']",1
"['today', 'day', 'born']",1
"['finished', 'breakfast', 'got', 'appearance', 'order', 'go', 'work', 'always', 'always', 'saw', 'door', 'lightly', 'opened', 'mouth', 'let', 'voice', 'sounded', 'like', 'would', 'fade', 'away']",1
"['see', 'soon']",1
"['yes', 'come', 'back', 'safely']",1
"['making', 'teary', 'face', 'smiled', 'made', 'somewhat', 'happy', 'tried', 'saying', 'see', 'soon', 'said', 'little', 'clearer', 'voice', 'really', 'looked', 'like', 'would', 'burst', 'tears', 'hurriedly', 'departed', 'leave', 'house']",1
"['place', 'could', 'return', 'words', 'say', 'want', 'think', 'going', 'delighted', 'said', 'sooner', 'thought', 'headed', 'company']",1
"['let', 'start']",1
"['honestly', 'thought', 'buy', 'bouquet', 'way', 'home', 'already', 'reserved', 'cake', 'let', 'celebrate', 'never', 'celebrated', 'know', 'sort', 'present', 'make', 'happy', 'let', 'go', 'buy', 'one', 'together', 'let', 'start', 'even', 'know', 'preferences', 'perfect', 'grasp', 'mine', 'never', 'even', 'said', 'anything', 'simply', 'embarrassing', 'learn', 'plenty', 'time', 'married', 'couple']",1
"['first', 'time', 'realized', 'long', 'time', 'spent', 'office']",1
"['operations', 'bid', 'leave', 'planned', 'return', 'home', 'directly', 'dropped', 'flower', 'shop']",1
"['know', 'color', 'like', 'chose', 'standard', 'roses', 'wrap', 'asked', 'many', 'wanted', 'randomly', 'threw', 'hundred', 'making', 'unbelievable', 'portion', 'even', 'said', 'prepared', 'day', 'number', 'reduced', 'seventy', 'well', 'world']",1
"['leaned', 'accept', 'bouquet', 'glasses', 'face', 'fell', 'made', 'metallic', 'sound', 'shock', 'instantly', 'brought', 'morning', 'prediction', 'history']",1
"['number', 'displayed', 'opened', 'eyes', 'wide', 'hurriedly', 'put', 'glasses', 'back', 'see', 'number', 'refresh', 'second']",1
"['digits', 'rose', 'blink', 'finally', 'exceeded', 'mark']",1
"['probability', 'kill', 'wife', 'without', 'found']",1
"['moment', 'saw', 'ran', 'switch', 'flipped']",1
"['recalled', 'words', 'friend', 'consulted', 'us']",1
"['want', 'treasure', 'wife', 'yet', 'top', 'feelings', 'probability', 'exceeds', 'careful', 'regardless', 'feel', 'means', 'come', 'situation', 'possible']",1
"['mean', 'asked', 'laughed', 'know']",1
"['situation', 'possible', 'situation', 'thought', 'set', 'feet', 'road', 'home', 'face', 'floated', 'mind', 'cold', 'sweat', 'flowed']",1
"['passed', 'shopping', 'street', 'passed', 'appliance', 'store', 'feet', 'came', 'stop', 'news', 'running', 'television', 'display', 'projected', 'image']",1
"['traffic', 'accident', 'dump', 'truck', 'critical', 'condition']",1
"['frantically', 'sorted', 'information', 'flowing', 'final', 'blow', 'uploaded', 'image', 'fell', 'knees']",1
"['really', 'remember', 'came', 'end', 'shrill', 'ring', 'cellphone', 'could', 'hear', 'father', 'law', 'yelling', 'something', 'reach']",1
"['chapter', 'regret', 'always', 'come', 'later']",1
"['yuri', 'pov']",1
"['day', 'came', 'without', 'forewarning']",1
"['usual', 'morning', 'usual', 'time', 'leave', 'work', 'saw', 'always']",1
"['see', 'soon']",1
"['thought', 'misheard', 'moment', 'anyone', 'averted', 'eyes', 'red', 'face', 'could', 'understand', 'heard', 'right']",1
"['come', 'back', 'safely', 'words', 'returned', 'got', 'caught', 'nose', 'reason']",1
"['see', 'soon']",1
"['said', 'time', 'little', 'clearer', 'voice', 'fled', 'house', 'like', 'fired', 'shell']",1
"['face', 'wet', 'drops', 'moistening', 'face', 'flowing', 'eyes', 'something', 'realized', 'ten', 'odd', 'seconds', 'later']",1
"['returned', 'living', 'room', 'took', 'care', 'tableware', 'eaten', 'footsteps', 'light', 'enough', 'could', 'burst', 'skip', 'moment', 'noticed', 'forgotten', 'item', 'top', 'desk']",1
"['leather', 'glasses', 'case']",1
"['never', 'seen', 'use', 'glasses', 'case', 'one', 'wore', 'glasses', 'house', 'doubt', 'belonged']",1
"['took', 'hand', 'thought', 'something', 'seen', 'living', 'together', 'long', 'perhaps', 'caught', 'glance', 'somewhere', 'heart', 'screaming', 'case']",1
"['turned', 'looked', 'bottom', 'froze']",1
"['initials', 'carved', 'recognized']",1
"['souvenir', 'marriage', 'still', 'young', 'present', 'trip', 'took', 'alone', 'case', 'tossed', 'trash', 'seconds', 'gave']",1
"['gripped', 'looked', 'worn', 'well', 'looked']",1
"['moved', 'embrace', 'arms', 'cried']",1
"['honestly', 'supposed', 'supposed', 'make', 'fall', 'realized', 'fallen', 'fed', 'fallen', 'easily', 'wondered', 'man', 'many', 'men', 'better', 'appearance', 'personality', 'stars', 'sky', 'sure', 'even', 'could', 'met', 'man', 'life']",1
"['repeated', 'stream', 'whys', 'closer', 'answer', 'one', 'thing', 'certain']",1
"['among', 'men', 'met', 'life', 'one', 'taught', 'family']",1
"['entire', 'day', 'felt', 'pleasant', 'troubled', 'shopping', 'dinner', 'mean', 'nothing', 'favorites', 'floating', 'mind', 'helping']",1
"['prep', 'work', 'meal', 'suddenly', 'turned', 'calendar', 'unintentionally', 'burst', 'laughing']",1
"['today', 'birthday']",1
"['happenings', 'morning', 'must', 'birthday', 'present', 'god', 'something', 'case', 'fine', 'celebrated', 'birthday', 'bit']",1
"['one', 'celebrated', 'many', 'years', 'verge', 'forgetting', 'one', 'day', 'fine', 'mean', 'wonderful', 'day']",1
"['lonely', 'lonely', 'truly', 'lonely']",1
"['happy', 'say', 'happy']",1
"['glad', 'say', 'glad']",1
"['sad', 'say', 'sad']",1
"['always', 'wanted', 'family', 'could', 'quarrel', 'trivial', 'things']",1
"['right', 'buy', 'cake']",1
"['big', 'enough', 'two', 'eat', 'round', 'one', 'candle', 'top']",1
"['always', 'wanted', 'could', 'count', 'times', 'invited', 'friend', 'birthday', 'party', 'hands', 'recreate', 'scenes', 'seen', 'dreams']",1
"['sure', 'tell', 'congratulations', 'anything', 'sort', 'fine', 'sitting', 'around', 'cake', 'together', 'plenty']",1
"['recall', 'correctly', 'supposed', 'blow', 'candles']",1
"['restless', 'lips', 'let', 'thing']",1
"['light', 'steps', 'took', 'purse', 'left', 'parlor', 'inside', 'head', 'filled', 'thoughts', 'tonight', 'perhaps', 'careless']",1
"['got', 'accident']",1
"['masahiro', 'pov']",1
"['asleep', 'hospital', 'bed', 'many', 'machines', 'fastened']",1
"['bandage', 'saw', 'made', 'want', 'avert', 'eyes', 'first', 'ever', 'seen', 'sleeping', 'face', 'beautiful', 'keep']",1
"['happy', 'birthday']",1
"['first', 'words', 'come']",1
"['sorry', 'everything']",1
"['next', 'apology']",1
"['luckily', 'two', 'us', 'ones', 'room', 'sat', 'beside', 'future', 'prediction']",1
"['probability', 'kill', 'wife', 'without', 'found']",1
"['bet', 'thought', 'even', 'feelings', 'got', 'way', 'touch', 'numerous', 'buttons', 'around', 'sure', 'would', 'die', 'could', 'traced', 'light', 'hand', 'throat', 'would', 'enough']",1
"['friend', 'said', 'would', 'start', 'calculations', 'probability', 'individual', 'input', 'likely', 'kill', 'wife', 'hesitation', 'speak', 'came', 'killing', 'whether', 'feet', 'would', 'held', 'back']",1
"['current', 'existence', 'might', 'die', 'could', 'even', 'hesitate', 'even', 'walked', 'starting', 'line', 'would', 'depart']",1
"['hey', 'today', 'probability', 'matter', 'low']",1
"['said', 'always', 'mean', 'probability', 'even', 'lenses', 'glasses', 'projected', 'wanted', 'live', 'probability', 'way', 'could', 'kill']",1
"['promise', 'peace', 'today', 'sleep', 'forever', 'let', 'take', 'lunch', 'go', 'park', 'never', 'said', 'love', 'sweet', 'eggs', 'make', 'fried', 'chicken', 'make', 'also', 'delicious', 'always', 'eaten', 'lunches', 'put', 'heart', 'making', 'silence', 'even', 'smiled', 'delight', 'convinced', 'fine', 'stayed', 'way']",1
"['gently', 'warm', 'stroked', 'face', 'going', 'cold', 'praying', 'would', 'flush', 'usual', 'pink']",1
"['today', 'learned', 'first', 'time', 'wanted', 'say', 'see', 'soon', 'petty', 'backbone', 'could', 'never', 'say', 'place', 'already', 'become', 'home', 'return', 'long', 'long', 'ago', 'made', 'cry', 'crying', 'watching', 'conceit', 'let', 'cry', 'anymore', 'true', 'swear']",1
"['sobbing', 'risen', 'back', 'throat', 'depths', 'nose', 'gave', 'prickly', 'ache', 'unable', 'endure', 'tears', 'flowed']",1
"['really', 'sorry', 'thank', 'waiting', 'time', 'want', 'hear', 'voice', 'dearly']",1
"['gripped', 'hand', 'hard', 'enough', 'turn', 'white', 'sobbed', 'confidence', 'words', 'would', 'come', 'properly', 'even', 'knew', 'something', 'say']",1
"['love', 'come', 'back', 'yuri']",1
"['spent', 'sixth', 'anniversary', 'wedding', 'hospital', 'room']",1
"['anniversary', 'birthday', 'close', 'almost', 'year', 'since', 'bedridden', 'eyes', 'world', 'large', 'yuri', 'become', 'human', 'vegetable', 'want', 'use', 'disgusting', 'term', 'describe', 'whenever', 'explain', 'condition', 'driven', 'use', 'necessity', 'really', 'got', 'polish', 'vocabulary', 'got', 'feeling', 'gave', 'greater', 'smile', 'usual', 'said', 'day']",1
"['yuri', 'always', 'done', 'would', 'change', 'room', 'flowers', 'every', 'day', 'talk', 'trivial', 'things', 'wipe', 'body', 'weather', 'nice', 'open', 'window', 'bathe', 'sun', 'together', 'learning', 'cooking', 'one', 'subordinates', 'getting', 'desperate', 'first', 'thing', 'ate', 'woke']",1
"['hey', 'yuri', 'today', 'probability', 'peace', 'safe', 'today']",1
"['looking', 'numbers', 'dropped', 'year', 'smiled', 'bit', 'fine', 'wait', 'wait', 'forever', 'take', 'time', 'come', 'back']",1
"['days', 'ago', 'doctor', 'told', 'keep', 'turning', 'life', 'support', 'within', 'field', 'vision', 'prospects', 'recovery', 'low', 'seems', 'raised', 'voice', 'punched', 'properly', 'repenting', 'yuri', 'angry', 'open', 'eyes']",1
"['half', 'year', 'later', 'father', 'law', 'given']",1
"['frantically', 'overcame', 'whenever', 'felt', 'would', 'desperately', 'talked', 'respond']",1
"['another', 'half', 'year', 'seventh', 'year', 'marriage']",1
"['lookin', 'yuri', 'respond', 'spoken', 'thought', 'five', 'years', 'respond']",1
"['feel', 'like', 'deal', 'talk', 'back', 'yuri', 'taste', 'sense', 'nihility']",1
"['even', 'birthday', 'eyesight', 'clouding', 'nothing', 'could', 'without', 'wiping', 'tears', 'streaming', 'face', 'spoke']",1
"['happy', 'birthday', 'brought', 'flowers', 'get', 'last', 'time', 'time', 'proper', 'one', 'hundred', 'amazing', 'go', 'buy', 'present', 'wake', 'seven', 'years', 'worth', 'matter', 'whatever', 'ask', 'slightest', 'would', 'want', 'tell', 'detail', 'next', 'time']",1
"['hey', 'today', 'probability', 'also', 'still', 'bed']",1
"['color', 'like', 'hobbies']",1
"['away', 'flowers', 'like']",1
"['show', 'pictures', 'childhood', 'next', 'time', 'high', 'school', 'go']",1
"['come', 'far', 'taken', 'aback', 'noticed', 'numbers', 'going', 'number', 'kept', 'dropping', 'heart', 'rate', 'rose', 'inverse', 'proportion']",1
"['good', 'morning', 'sure', 'slept', 'today']",1
"['behind', 'oxygen', 'mask', 'well', 'shaped', 'lips', 'quietly', 'smiled', 'large', 'eyes', 'reflected', 'lightly', 'shook']",1
"['good', 'morning', 'masahiro']",1
"['voice', 'come', 'shape', 'moving', 'lips', 'broke', 'tears']",1
"['continuing', 'habit']",1
"['today', 'result']",1
"['rising', 'bed', 'pat', 'yuri', 'beside', 'today', 'small', 'life', 'beyond', 'energetically', 'burst', 'tears']",1
"['chapter', 'yuri', 'consciouness']",1
"['yuri', 'pov']",1
"['came', 'standing', 'empty', 'darkness']",1
"['ah', 'alone', 'suddenly', 'understood', 'chest', 'felt', 'tight', 'end', 'perhaps', 'god', 'telling', 'get', 'carried', 'away', 'life', 'soft', 'turnabouts', 'happen']",1
"['mean', 'probability', 'zero', 'point', 'zero', 'zero', 'zero', 'percent', 'probability', 'loves', 'zero', 'even', 'year', 'passed', 'doubt', 'probability', 'would', 'make', 'dramatic', 'comeback']",1
"['loving', 'impossible', 'thing', 'eternities', 'come', 'family', 'got', 'feeling', 'told', 'well']",1
"['mind', 'sunk']",1
"['next', 'place', 'consciousness', 'resurfaced', 'space', 'gray', 'black']",1
"['quite', 'grip', 'sense', 'time', 'whether', 'lot', 'time', 'passed', 'hours', 'fact', 'alone', 'came', 'first', 'could', 'care', 'less', 'time', 'perhaps', 'perceived']",1
"['felt', 'light', 'hitting', 'somewhere', 'closed', 'impact', 'something', 'piercing', 'retinas', 'gradually', 'changed', 'surroundings', 'gray', 'white']",1
"['yuri', 'today', 'probability', 'good', 'day', 'today']",1
"['heard', 'voice', 'voice']",1
"['bit', 'muffled', 'definitely', 'voice']",1
"['strange', 'ever', 'even', 'call', 'name']",1
"['thinking', 'far', 'understood', 'voice', 'auditory', 'hallucination', 'words', 'voice', 'wanted', 'hear', 'arbitrarily', 'broadcast', 'brain']",1
"['weather', 'nice', 'today', 'wake', 'let', 'take', 'walk', 'together']",1
"['oh', 'see', 'sounds', 'nice', 'like', 'walk']",1
"['answered', 'realized', 'foolish', 'internal', 'conversation', 'illusions', 'sheer', 'stupidity', 'thought', 'even', 'fun', 'joyfully', 'responded', 'words', 'coming']",1
"['next', 'time', 'time', 'every', 'time', 'mind', 'resurfaced', 'would', 'converse', 'illusion']",1
"['today', 'brought', 'dashi', 'rolled', 'eggs', 'cooked', 'tasty', 'ended', 'burning', 'eat', 'someday']",1
"['course', 'something', 'made', 'eat', 'even', 'poisoned', 'tell']",1
"['truth', 'punched', 'doctor', 'today', 'regret', 'fact', 'hit', 'want', 'apologize', 'worth', 'courage', 'wake', 'go', 'together', 'think', 'boost', 'confidence']",1
"['bonifide', 'adult', 'go', 'see', 'half', 'way']",1
"['today', 'flowers', 'gerberas', 'look', 'like', 'suit', 'seems', 'gardening', 'new', 'fad', 'days', 'think', 'try', 'together', 'sometime']",1
"['sounds', 'nice', 'truth', 'like', 'cosmos', 'quite', 'suited', 'gardening', 'right', 'also', 'like', 'pansies', 'start']",1
"['illusion', 'often', 'used', 'word', 'together', 'thought', 'indicating', 'desires', 'became', 'excessively', 'embarrassed', 'really', 'hallucinations']",1
"['exchanging', 'words', 'phantom', 'thought', 'could', 'words', 'seeing', 'think', 'chest', 'became', 'tight']",1
"['really', 'words', 'delighted', 'unbelievably', 'delighted']",1
"['sure', 'many', 'times', 'felt', 'mind', 'resurface']",1
"['today', 'ever', 'muffled', 'voice', 'sounded', 'much', 'clearer', 'usual']",1
"['happy', 'birthday', 'brought', 'flowers', 'get', 'last', 'time', 'time', 'proper', 'one', 'hundred', 'amazing', 'go', 'buy', 'present', 'wake', 'seven', 'years', 'worth', 'matter', 'whatever', 'ask', 'slightest', 'would', 'want', 'tell', 'detail', 'next', 'time']",1
"['tried', 'respond', 'always', 'strange', 'today', 'days', 'voice', 'come']",1
"['hey', 'today', 'probability', 'also', 'still', 'bed']",1
"['words', 'caught', 'nose', 'reason', 'crying', 'thought', 'stay']",1
"['color', 'like', 'hobbies']",1
"['crying', 'pain', 'sorrow']",1
"['away', 'flowers', 'like']",1
"['like', 'cosmos', 'told', 'earlier', 'wrong', 'hear']",1
"['show', 'pictures', 'childhood', 'next', 'time', 'high', 'school', 'go']",1
"['show', 'many', 'want', 'tell', 'cry', 'want', 'see', 'crying', 'face']",1
"['matter', 'many', 'times', 'tried', 'let', 'voice', 'come', 'hazy', 'strange', 'sound', 'came', 'words', 'comfort', 'would', 'escape', 'lips']",1
"['crying', 'cheering', 'role']",1
"['mean', 'family']",1
"['painful', 'light', 'seared', 'eyelids', 'painfully', 'dry', 'throat', 'let', 'strange', 'sound', 'shadow', 'could', 'vaguely', 'make', 'surely', 'way', 'would', 'mistaken']",1
"['good', 'morning', 'sure', 'slept', 'today']",1
"['good', 'morning', 'masahiro']",1
"['voice', 'come', 'cried']",1
"['chapter', 'epilogue']",1
"['think', 'good', 'birthday', 'present', 'want', 'new', 'computer', 'old', 'notebook', 'already', 'broken', 'would', 'bag', 'necklace', 'better', 'woman', 'image', 'liking', 'precious', 'metals', 'image', 'fit']",1
"['certain', 'day', 'near', 'encroaching', 'discharge', 'masahiro', 'asked']",1
"['really', 'ask', 'anything']",1
"['yeah', 'made', 'wait', 'quite', 'please', 'limit', 'capable', 'think', 'become', 'oil', 'baron']",1
"['oh', 'desire', 'extort', 'something', 'expensive']",1
"['mouth', 'turned', 'sour', 'hand', 'reached', 'pat', 'head', 'comforting']",1
"['say', 'quickly', 'anything']",1
"['masahiro', 'please', 'lend', 'ear']",1
"['since', 'sitting', 'wheelchair', 'brought', 'head', 'close']",1
"['might', 'pestered']",0
"['want', 'family']",2
